…
# Fumbling around

## Import

    # A tibble: 68 × 6
       location tree    age height dbh_cm volume
       <fct>    <fct> <int>  <dbl>  <dbl>  <dbl>
     1 2        1        20    4.8    6.6     11
     2 2        1        30    9.5   15.6     80
     3 2        1        40   14.2   22.3    240
     4 2        1        50   18.8   28.3    505
     5 2        1        60   23.1   32.2    805
     6 2        1        70   26.2   34.6   1079
     7 2        1        80   28.2   36.5   1335
     8 2        1        90   30.2   37.8   1538
     9 2        1       100   32.2   39.4   1761
    10 2        1       110   33.5   41     1988
    # ℹ 58 more rows
…
Location seems to explain the most of the differences in the other
variables, interesting.

## Volume calculations

Let’s check how the volume got to be, because this was calculated, but
the equation was not given in the data dictionary.

Let’s start with the basic forestry equation of
$m^3 =\frac{\pi}{4} d^2 \cdot h \cdot f \cdot 0.001$, with $f = 0.5$

    # A tibble: 68 × 7
       location tree    age height dbh_cm volume volume_test
       <fct>    <fct> <int>  <dbl>  <dbl>  <dbl>       <dbl>
     1 2        1        20    4.8    6.6     11       0.008
     2 2        1        30    9.5   15.6     80       0.091
     3 2        1        40   14.2   22.3    240       0.277
     4 2        1        50   18.8   28.3    505       0.591
     5 2        1        60   23.1   32.2    805       0.941
     6 2        1        70   26.2   34.6   1079       1.23 
     7 2        1        80   28.2   36.5   1335       1.48 
     8 2        1        90   30.2   37.8   1538       1.70 
     9 2        1       100   32.2   39.4   1761       1.96 
    10 2        1       110   33.5   41     1988       2.21 
    # ℹ 58 more rows
…
$$
V = 2(d^{2}/1000) \cdot (h - NH) \cdot Volumenkorrekturfaktor
$$

where:

- $d = \text{DBH, [cm]}$
- $h = \text{Total tree height, [m]}$
- $NH = \text{"Normalhöhe", aka. height of a standard tree}$
- $\text{Volumenkorrekturfaktor} = \text{Reduction factor}$

<!-- -->

    # A tibble: 68 × 9
       location tree    age height dbh_cm volume volume_denzin volume_forest
       <fct>    <fct> <int>  <dbl>  <dbl>  <dbl>         <dbl>         <dbl>
     1 2        1        20    4.8    6.6     11          0.01         0.008
     2 2        1        30    9.5   15.6     80          0.11         0.091
     3 2        1        40   14.2   22.3    240          0.29         0.277
     4 2        1        50   18.8   28.3    505          0.58         0.591
     5 2        1        60   23.1   32.2    805          0.88         0.941
     6 2        1        70   26.2   34.6   1079          1.13         1.23 
     7 2        1        80   28.2   36.5   1335          1.34         1.48 
     8 2        1        90   30.2   37.8   1538          1.52         1.70 
     9 2        1       100   32.2   39.4   1761          1.75         1.96 
    10 2        1       110   33.5   41     1988          1.96         2.21 
    # ℹ 58 more rows
    # ℹ 1 more variable: volume_dcm <dbl>
…
